[
  {
    "id": "0",
    "title": "Backlog",
    "issuesId": ["0","1","2"]
  },
  {
    "id": "1",
    "title": "To Do",
    "issuesId": ["3","4"]
  },
  {
    "id": "2",
    "title": "Done",
    "issuesId": ["5","6","7"]
  }
]